[
  {
    "id": 1,
    "name": "John",
    "age": 30,
    "address": {
      "street": "123 Main St",
      "city": "Anytown",
      "country": "USA"
    }
  },
  {
    "id": 2,
    "name": "Alice",
    "age": 25,
    "address": {
      "street": "456 Elm St",
      "city": "Othercity",
      "country": "Canada"
    }
  },
  {
    "id": 3,
    "name": "Bob",
    "age": 35,
    "address": {
      "street": "789 Oak St",
      "city": "Anothercity",
      "country": "UK"
    }
  }
]
